\relax 
\providecommand\hyper@newdestlabel[2]{}
\providecommand\HyperFirstAtBeginDocument{\AtBeginDocument}
\HyperFirstAtBeginDocument{\ifx\hyper@anchor\@undefined
\global\let\oldcontentsline\contentsline
\gdef\contentsline#1#2#3#4{\oldcontentsline{#1}{#2}{#3}}
\global\let\oldnewlabel\newlabel
\gdef\newlabel#1#2{\newlabelxx{#1}#2}
\gdef\newlabelxx#1#2#3#4#5#6{\oldnewlabel{#1}{{#2}{#3}}}
\AtEndDocument{\ifx\hyper@anchor\@undefined
\let\contentsline\oldcontentsline
\let\newlabel\oldnewlabel
\fi}
\fi}
\global\let\hyper@last\relax 
\gdef\HyperFirstAtBeginDocument#1{#1}
\providecommand\HyField@AuxAddToFields[1]{}
\providecommand\HyField@AuxAddToCoFields[2]{}
\@writefile{toc}{\contentsline {section}{\numberline {1}Finding and Loading Training Text}{1}{section.1}}
\@writefile{toc}{\contentsline {subsection}{\numberline {1.1}}{1}{subsection.1.1}}
\@writefile{toc}{\contentsline {subsection}{\numberline {1.2}}{1}{subsection.1.2}}
\@writefile{toc}{\contentsline {section}{\numberline {2}Implementing an RNN}{1}{section.2}}
\@writefile{toc}{\contentsline {subsection}{\numberline {2.1}Back-propagation Through Time}{1}{subsection.2.1}}
\@writefile{toc}{\contentsline {subsubsection}{\numberline {2.1.1}Forward-propagation step}{1}{subsubsection.2.1.1}}
\@writefile{toc}{\contentsline {subsubsection}{\numberline {2.1.2}Weight Update Equations}{1}{subsubsection.2.1.2}}
\@writefile{toc}{\contentsline {subsection}{\numberline {2.2}Network Training}{2}{subsection.2.2}}
\@writefile{toc}{\contentsline {subsubsection}{\numberline {2.2.1}}{2}{subsubsection.2.2.1}}
\@writefile{lof}{\contentsline {figure}{\numberline {1}{\ignorespaces Training loss vs epochs for our original network.}}{2}{figure.1}}
\@writefile{toc}{\contentsline {subsubsection}{\numberline {2.2.2}}{3}{subsubsection.2.2.2}}
\@writefile{lot}{\contentsline {table}{\numberline {1}{\ignorespaces Text generated at various stopping points}}{3}{table.1}}
\newlabel{Text generated at various stopping points}{{1}{3}{Text generated at various stopping points}{table.1}{}}
\@writefile{toc}{\contentsline {subsubsection}{\numberline {2.2.3}}{4}{subsubsection.2.2.3}}
\@writefile{toc}{\contentsline {subsection}{\numberline {2.3}Experimenting with Network Structure}{4}{subsection.2.3}}
\@writefile{toc}{\contentsline {subsubsection}{\numberline {2.3.1}Number of hidden units.}{4}{subsubsection.2.3.1}}
\@writefile{lof}{\contentsline {figure}{\numberline {2}{\ignorespaces Training loss vs epochs for network with 100 hidden units.}}{4}{figure.2}}
\@writefile{lof}{\contentsline {figure}{\numberline {3}{\ignorespaces Training loss vs epochs for network with 25 hidden units.}}{4}{figure.3}}
\@writefile{toc}{\contentsline {subsubsection}{\numberline {2.3.2}Sequence length.}{5}{subsubsection.2.3.2}}
\@writefile{lof}{\contentsline {figure}{\numberline {4}{\ignorespaces Training loss vs epochs for network with sequence size of 20.}}{5}{figure.4}}
\@writefile{lof}{\contentsline {figure}{\numberline {5}{\ignorespaces Training loss vs epochs for sequence length of 5.}}{6}{figure.5}}
\@writefile{toc}{\contentsline {section}{\numberline {3}Extra Credit}{6}{section.3}}
\@writefile{lof}{\contentsline {figure}{\numberline {6}{\ignorespaces Training loss vs epochs for our deep RNN.}}{6}{figure.6}}
\@writefile{toc}{\contentsline {section}{\numberline {4}Team Contributions}{6}{section.4}}
\@writefile{lot}{\contentsline {table}{\numberline {2}{\ignorespaces Text generated at various stopping points}}{7}{table.2}}
\newlabel{Text generated at various stopping points}{{2}{7}{Text generated at various stopping points}{table.2}{}}
\@writefile{lol}{\contentsline {lstlisting}{A}{7}{lstlisting.-5}}
\@writefile{lol}{\contentsline {lstlisting}{e}{7}{lstlisting.-9}}
\@writefile{lol}{\contentsline {lstlisting}{W}{7}{lstlisting.-13}}
\@writefile{lol}{\contentsline {lstlisting}{d}{7}{lstlisting.-17}}
\@writefile{lot}{\contentsline {table}{\numberline {3}{\ignorespaces Text generated at various stopping points}}{8}{table.3}}
\newlabel{Text generated at various stopping points}{{3}{8}{Text generated at various stopping points}{table.3}{}}
\@writefile{lot}{\contentsline {table}{\numberline {4}{\ignorespaces Text generated at various stopping points}}{9}{table.4}}
\newlabel{Text generated at various stopping points}{{4}{9}{Text generated at various stopping points}{table.4}{}}
\@writefile{lot}{\contentsline {table}{\numberline {5}{\ignorespaces Text generated at various stopping points}}{9}{table.5}}
\newlabel{Text generated at various stopping points}{{5}{9}{Text generated at various stopping points}{table.5}{}}
\@writefile{lot}{\contentsline {table}{\numberline {6}{\ignorespaces Text generated at various stopping points}}{10}{table.6}}
\newlabel{Text generated at various stopping points}{{6}{10}{Text generated at various stopping points}{table.6}{}}
\@writefile{lot}{\contentsline {table}{\numberline {7}{\ignorespaces Text generated at various stopping points}}{10}{table.7}}
\newlabel{Text generated at various stopping points}{{7}{10}{Text generated at various stopping points}{table.7}{}}
